census_code,qtd_delegacias
351880005000541,1
355030801000062,2
355030801000083,2
355030801000090,2
355030802000003,2
355030802000043,1
355030804000053,2
355030804000057,2
355030805000030,2
355030805000071,2
355030806000003,1
355030808000008,3
355030808000028,1
355030808000039,4
355030809000010,1
355030809000011,1
355030809000012,9
355030809000021,6
355030809000023,6
355030809000035,1
355030810000001,1
355030811000045,1
355030811000058,1
355030812000025,3
355030812000038,1
355030812000041,1
355030812000128,2
355030813000111,1
355030815000025,1
355030815000059,2
355030815000060,4
355030815000084,1
355030815000095,1
355030816000075,2
355030817000020,2
355030818000091,1
355030819000061,1
355030819000065,3
355030820000003,1
355030820000099,3
355030820000101,1
355030821000015,2
355030822000001,1
355030822000312,1
355030822000321,1
355030823000025,3
355030823000050,2
355030823000190,1
355030824000035,2
355030825000092,1
355030825000099,1
355030825000234,1
355030826000002,2
355030826000037,2
355030826000057,1
355030826000064,3
355030827000076,1
355030827000124,1
355030828000074,1
355030829000006,2
355030830000132,1
355030830000138,1
355030831000125,2
355030832000011,1
355030832000036,1
355030832000129,1
355030834000008,3
355030834000134,3
355030835000056,2
355030835000177,2
355030836000101,2
355030837000004,3
355030837000041,1
355030837000048,1
355030837000093,1
355030838000134,1
355030838000137,2
355030838000195,1
355030838000198,2
355030838000254,1
355030841000024,1
355030841000092,1
355030842000177,1
355030843000164,1
355030844000069,1
355030844000145,1
355030845000026,2
355030845000070,1
355030845000125,1
355030846000179,1
355030847000021,2
355030847000034,3
355030848000039,2
355030849000072,1
355030849000086,3
355030849000100,2
355030849000106,6
355030849000109,1
355030850000011,1
355030851000064,2
355030853000048,1
355030853000068,2
355030853000087,1
355030854000067,1
355030854000081,2
355030855000025,1
355030855000087,1
355030856000004,3
355030856000008,2
355030856000010,1
355030857000050,1
355030857000078,2
355030860000217,5
355030861000023,1
355030862000019,3
355030862000074,2
355030862000152,4
355030863000002,2
355030863000035,1
355030863000174,1
355030864000074,1
355030865000090,1
355030866000002,1
355030866000011,1
355030866000047,1
355030866000068,2
355030866000069,1
355030866000072,5
355030866000084,2
355030866000104,1
355030866000118,1
355030867000042,5
355030868000042,2
355030868000061,1
355030868000132,2
355030868000223,1
355030869000031,3
355030869000047,2
355030869000057,1
355030869000079,1
355030870000053,2
355030870000057,1
355030870000060,1
355030871000032,2
355030871000090,1
355030872000057,1
355030872000090,2
355030872000102,1
355030872000114,1
355030873000074,2
355030873000132,1
355030873000141,1
355030873000198,1
355030874000093,1
355030874000123,2
355030875000007,1
355030875000153,1
355030876000025,1
355030876000118,1
355030876000302,1
355030876000339,1
355030876000341,2
355030877000091,1
355030877000134,4
355030878000001,2
355030878000002,1
355030878000005,24
355030878000006,2
355030878000007,1
355030878000009,1
355030878000035,1
355030879000004,4
355030880000009,2
355030880000066,2
355030880000109,2
355030880000131,2
355030881000092,1
355030881000247,1
355030881000250,1
355030882000071,2
355030882000126,5
355030883000067,1
355030883000152,1
355030884000083,1
355030884000130,2
355030885000001,1
355030885000021,1
355030886000046,2
355030886000078,1
355030887000003,1
355030887000107,1
355030888000014,2
355030888000035,1
355030888000051,3
355030889000032,2
355030889000104,1
355030889000118,4
355030890000125,2
355030890000177,1
355030890000178,1
355030891000077,3
355030892000083,1
355030892000131,1
355030893000009,1
355030893000010,1
355030894000027,1
355030894000237,1
355030895000005,1
355030896000116,1
